CRITICAL - 2022-07-04 22:10:58 --> Division by zero
#0 /var/www/html/dashboard-ftmd/app/Controllers/Dashboard/Anggaran.php(112): CodeIgniter\Debug\Exceptions->errorHandler()
#1 /var/www/html/dashboard-ftmd/system/CodeIgniter.php(918): App\Controllers\Dashboard\Anggaran->api_penyerapan_persen()
#2 /var/www/html/dashboard-ftmd/system/CodeIgniter.php(404): CodeIgniter\CodeIgniter->runController()
#3 /var/www/html/dashboard-ftmd/system/CodeIgniter.php(312): CodeIgniter\CodeIgniter->handleRequest()
#4 /var/www/html/dashboard-ftmd/public/index.php(45): CodeIgniter\CodeIgniter->run()
#5 {main}
CRITICAL - 2022-07-04 22:17:09 --> Division by zero
#0 /var/www/html/dashboard-ftmd/app/Controllers/Dashboard/Anggaran.php(112): CodeIgniter\Debug\Exceptions->errorHandler()
#1 /var/www/html/dashboard-ftmd/system/CodeIgniter.php(918): App\Controllers\Dashboard\Anggaran->api_penyerapan_persen()
#2 /var/www/html/dashboard-ftmd/system/CodeIgniter.php(404): CodeIgniter\CodeIgniter->runController()
#3 /var/www/html/dashboard-ftmd/system/CodeIgniter.php(312): CodeIgniter\CodeIgniter->handleRequest()
#4 /var/www/html/dashboard-ftmd/public/index.php(45): CodeIgniter\CodeIgniter->run()
#5 {main}
