CRITICAL - 2023-11-05 17:14:00 --> Invalid file: dashboard/anggaran.php
#0 C:\laragon\www\dashboard-ftmd\system\View\View.php(228): CodeIgniter\Exceptions\FrameworkException::forInvalidFile('dashboard/angga...')
#1 C:\laragon\www\dashboard-ftmd\system\Common.php(1119): CodeIgniter\View\View->render('dashboard/angga...', Array, true)
#2 C:\laragon\www\dashboard-ftmd\app\Controllers\Auth.php(113): view('dashboard/angga...')
#3 C:\laragon\www\dashboard-ftmd\system\CodeIgniter.php(918): App\Controllers\Auth->index()
#4 C:\laragon\www\dashboard-ftmd\system\CodeIgniter.php(404): CodeIgniter\CodeIgniter->runController(Object(App\Controllers\Auth))
#5 C:\laragon\www\dashboard-ftmd\system\CodeIgniter.php(312): CodeIgniter\CodeIgniter->handleRequest(NULL, Object(Config\Cache), false)
#6 C:\laragon\www\dashboard-ftmd\public\index.php(45): CodeIgniter\CodeIgniter->run()
#7 {main}
CRITICAL - 2023-11-05 17:15:15 --> Invalid file: dashboard/anggaran.php
#0 C:\laragon\www\dashboard-ftmd\system\View\View.php(228): CodeIgniter\Exceptions\FrameworkException::forInvalidFile('dashboard/angga...')
#1 C:\laragon\www\dashboard-ftmd\system\Common.php(1119): CodeIgniter\View\View->render('dashboard/angga...', Array, true)
#2 C:\laragon\www\dashboard-ftmd\app\Controllers\Auth.php(113): view('dashboard/angga...', Array)
#3 C:\laragon\www\dashboard-ftmd\system\CodeIgniter.php(918): App\Controllers\Auth->index()
#4 C:\laragon\www\dashboard-ftmd\system\CodeIgniter.php(404): CodeIgniter\CodeIgniter->runController(Object(App\Controllers\Auth))
#5 C:\laragon\www\dashboard-ftmd\system\CodeIgniter.php(312): CodeIgniter\CodeIgniter->handleRequest(NULL, Object(Config\Cache), false)
#6 C:\laragon\www\dashboard-ftmd\public\index.php(45): CodeIgniter\CodeIgniter->run()
#7 {main}
CRITICAL - 2023-11-05 22:53:45 --> Invalid file: home.php
#0 C:\laragon\www\dashboard-ftmd\system\View\View.php(228): CodeIgniter\Exceptions\FrameworkException::forInvalidFile('home.php')
#1 C:\laragon\www\dashboard-ftmd\system\Common.php(1119): CodeIgniter\View\View->render('home', Array, true)
#2 C:\laragon\www\dashboard-ftmd\app\Controllers\Auth.php(122): view('home', Array)
#3 C:\laragon\www\dashboard-ftmd\system\CodeIgniter.php(918): App\Controllers\Auth->index()
#4 C:\laragon\www\dashboard-ftmd\system\CodeIgniter.php(404): CodeIgniter\CodeIgniter->runController(Object(App\Controllers\Auth))
#5 C:\laragon\www\dashboard-ftmd\system\CodeIgniter.php(312): CodeIgniter\CodeIgniter->handleRequest(NULL, Object(Config\Cache), false)
#6 C:\laragon\www\dashboard-ftmd\public\index.php(45): CodeIgniter\CodeIgniter->run()
#7 {main}
CRITICAL - 2023-11-05 22:54:48 --> Invalid file: app\Views\dashboard\anggaran\index.php
#0 C:\laragon\www\dashboard-ftmd\system\View\View.php(228): CodeIgniter\Exceptions\FrameworkException::forInvalidFile('app\\Views\\dashb...')
#1 C:\laragon\www\dashboard-ftmd\system\Common.php(1119): CodeIgniter\View\View->render('app\\Views\\dashb...', Array, true)
#2 C:\laragon\www\dashboard-ftmd\app\Controllers\Auth.php(122): view('app\\Views\\dashb...', Array)
#3 C:\laragon\www\dashboard-ftmd\system\CodeIgniter.php(918): App\Controllers\Auth->index()
#4 C:\laragon\www\dashboard-ftmd\system\CodeIgniter.php(404): CodeIgniter\CodeIgniter->runController(Object(App\Controllers\Auth))
#5 C:\laragon\www\dashboard-ftmd\system\CodeIgniter.php(312): CodeIgniter\CodeIgniter->handleRequest(NULL, Object(Config\Cache), false)
#6 C:\laragon\www\dashboard-ftmd\public\index.php(45): CodeIgniter\CodeIgniter->run()
#7 {main}
CRITICAL - 2023-11-05 22:57:49 --> Invalid file: app\Views\dashboard\anggaran\index.php
#0 C:\laragon\www\dashboard-ftmd\system\View\View.php(228): CodeIgniter\Exceptions\FrameworkException::forInvalidFile('app\\Views\\dashb...')
#1 C:\laragon\www\dashboard-ftmd\system\Common.php(1119): CodeIgniter\View\View->render('app\\Views\\dashb...', Array, true)
#2 C:\laragon\www\dashboard-ftmd\app\Controllers\Auth.php(122): view('app\\Views\\dashb...', Array)
#3 C:\laragon\www\dashboard-ftmd\system\CodeIgniter.php(918): App\Controllers\Auth->index()
#4 C:\laragon\www\dashboard-ftmd\system\CodeIgniter.php(404): CodeIgniter\CodeIgniter->runController(Object(App\Controllers\Auth))
#5 C:\laragon\www\dashboard-ftmd\system\CodeIgniter.php(312): CodeIgniter\CodeIgniter->handleRequest(NULL, Object(Config\Cache), false)
#6 C:\laragon\www\dashboard-ftmd\public\index.php(45): CodeIgniter\CodeIgniter->run()
#7 {main}
CRITICAL - 2023-11-05 23:01:12 --> Invalid file: dashboard\anggaran.php
#0 C:\laragon\www\dashboard-ftmd\system\View\View.php(228): CodeIgniter\Exceptions\FrameworkException::forInvalidFile('dashboard\\angga...')
#1 C:\laragon\www\dashboard-ftmd\system\Common.php(1119): CodeIgniter\View\View->render('dashboard\\angga...', Array, true)
#2 C:\laragon\www\dashboard-ftmd\app\Controllers\Auth.php(122): view('dashboard\\angga...')
#3 C:\laragon\www\dashboard-ftmd\system\CodeIgniter.php(918): App\Controllers\Auth->index()
#4 C:\laragon\www\dashboard-ftmd\system\CodeIgniter.php(404): CodeIgniter\CodeIgniter->runController(Object(App\Controllers\Auth))
#5 C:\laragon\www\dashboard-ftmd\system\CodeIgniter.php(312): CodeIgniter\CodeIgniter->handleRequest(NULL, Object(Config\Cache), false)
#6 C:\laragon\www\dashboard-ftmd\public\index.php(45): CodeIgniter\CodeIgniter->run()
#7 {main}
CRITICAL - 2023-11-05 23:03:52 --> Class 'App\Controllers\ITBCas' not found
#0 C:\laragon\www\dashboard-ftmd\system\CodeIgniter.php(918): App\Controllers\Auth->index()
#1 C:\laragon\www\dashboard-ftmd\system\CodeIgniter.php(404): CodeIgniter\CodeIgniter->runController(Object(App\Controllers\Auth))
#2 C:\laragon\www\dashboard-ftmd\system\CodeIgniter.php(312): CodeIgniter\CodeIgniter->handleRequest(NULL, Object(Config\Cache), false)
#3 C:\laragon\www\dashboard-ftmd\public\index.php(45): CodeIgniter\CodeIgniter->run()
#4 {main}
CRITICAL - 2023-11-05 10:07:44 --> Class 'App\Controllers\NusoapClient' not found
#0 C:\laragon\www\dashboard-ftmd\system\CodeIgniter.php(890): App\Controllers\Auth->__construct()
#1 C:\laragon\www\dashboard-ftmd\system\CodeIgniter.php(399): CodeIgniter\CodeIgniter->createController()
#2 C:\laragon\www\dashboard-ftmd\system\CodeIgniter.php(312): CodeIgniter\CodeIgniter->handleRequest(NULL, Object(Config\Cache), false)
#3 C:\laragon\www\dashboard-ftmd\public\index.php(45): CodeIgniter\CodeIgniter->run()
#4 {main}
CRITICAL - 2023-11-05 19:36:11 --> unlink(C:\laragon\www\dashboard-ftmd\writable\debugbar/debugbar_1699234248.json): No such file or directory
#0 [internal function]: CodeIgniter\Debug\Exceptions->errorHandler(2, 'unlink(C:\\larag...', 'C:\\laragon\\www\\...', 106, Array)
#1 C:\laragon\www\dashboard-ftmd\system\Debug\Toolbar\Collectors\History.php(106): unlink('C:\\laragon\\www\\...')
#2 C:\laragon\www\dashboard-ftmd\system\Debug\Toolbar.php(483): CodeIgniter\Debug\Toolbar\Collectors\History->setFiles(1699234565, 20)
#3 C:\laragon\www\dashboard-ftmd\system\Debug\Toolbar.php(455): CodeIgniter\Debug\Toolbar->format(Array, 'html')
#4 C:\laragon\www\dashboard-ftmd\app\Config\Events.php(50): CodeIgniter\Debug\Toolbar->respond()
#5 [internal function]: CodeIgniter\Events\Events::Config\{closure}()
#6 C:\laragon\www\dashboard-ftmd\system\Events\Events.php(188): call_user_func(Object(Closure))
#7 C:\laragon\www\dashboard-ftmd\system\CodeIgniter.php(293): CodeIgniter\Events\Events::trigger('pre_system')
#8 C:\laragon\www\dashboard-ftmd\public\index.php(45): CodeIgniter\CodeIgniter->run()
#9 {main}
CRITICAL - 2023-11-05 19:56:18 --> file_get_contents(C:\laragon\www\dashboard-ftmd\writable\debugbar/debugbar_1699235522.json): failed to open stream: No such file or directory
#0 [internal function]: CodeIgniter\Debug\Exceptions->errorHandler(2, 'file_get_conten...', 'C:\\laragon\\www\\...', 111, Array)
#1 C:\laragon\www\dashboard-ftmd\system\Debug\Toolbar\Collectors\History.php(111): file_get_contents('C:\\laragon\\www\\...')
#2 C:\laragon\www\dashboard-ftmd\system\Debug\Toolbar.php(483): CodeIgniter\Debug\Toolbar\Collectors\History->setFiles(1699235758, 20)
#3 C:\laragon\www\dashboard-ftmd\system\Debug\Toolbar.php(455): CodeIgniter\Debug\Toolbar->format(Array, 'html')
#4 C:\laragon\www\dashboard-ftmd\app\Config\Events.php(50): CodeIgniter\Debug\Toolbar->respond()
#5 [internal function]: CodeIgniter\Events\Events::Config\{closure}()
#6 C:\laragon\www\dashboard-ftmd\system\Events\Events.php(188): call_user_func(Object(Closure))
#7 C:\laragon\www\dashboard-ftmd\system\CodeIgniter.php(293): CodeIgniter\Events\Events::trigger('pre_system')
#8 C:\laragon\www\dashboard-ftmd\public\index.php(45): CodeIgniter\CodeIgniter->run()
#9 {main}
CRITICAL - 2023-11-05 19:56:18 --> file_get_contents(C:\laragon\www\dashboard-ftmd\writable\debugbar/debugbar_1699235511.json): failed to open stream: No such file or directory
#0 [internal function]: CodeIgniter\Debug\Exceptions->errorHandler(2, 'file_get_conten...', 'C:\\laragon\\www\\...', 111, Array)
#1 C:\laragon\www\dashboard-ftmd\system\Debug\Toolbar\Collectors\History.php(111): file_get_contents('C:\\laragon\\www\\...')
#2 C:\laragon\www\dashboard-ftmd\system\Debug\Toolbar.php(483): CodeIgniter\Debug\Toolbar\Collectors\History->setFiles(1699235751, 20)
#3 C:\laragon\www\dashboard-ftmd\system\Debug\Toolbar.php(455): CodeIgniter\Debug\Toolbar->format(Array, 'html')
#4 C:\laragon\www\dashboard-ftmd\app\Config\Events.php(50): CodeIgniter\Debug\Toolbar->respond()
#5 [internal function]: CodeIgniter\Events\Events::Config\{closure}()
#6 C:\laragon\www\dashboard-ftmd\system\Events\Events.php(188): call_user_func(Object(Closure))
#7 C:\laragon\www\dashboard-ftmd\system\CodeIgniter.php(293): CodeIgniter\Events\Events::trigger('pre_system')
#8 C:\laragon\www\dashboard-ftmd\public\index.php(45): CodeIgniter\CodeIgniter->run()
#9 {main}
CRITICAL - 2023-11-05 19:56:18 --> unlink(C:\laragon\www\dashboard-ftmd\writable\debugbar/debugbar_1699235522.json): No such file or directory
#0 [internal function]: CodeIgniter\Debug\Exceptions->errorHandler(2, 'unlink(C:\\larag...', 'C:\\laragon\\www\\...', 106, Array)
#1 C:\laragon\www\dashboard-ftmd\system\Debug\Toolbar\Collectors\History.php(106): unlink('C:\\laragon\\www\\...')
#2 C:\laragon\www\dashboard-ftmd\system\Debug\Toolbar.php(483): CodeIgniter\Debug\Toolbar\Collectors\History->setFiles(1699235764, 20)
#3 C:\laragon\www\dashboard-ftmd\system\Debug\Toolbar.php(455): CodeIgniter\Debug\Toolbar->format(Array, 'html')
#4 C:\laragon\www\dashboard-ftmd\app\Config\Events.php(50): CodeIgniter\Debug\Toolbar->respond()
#5 [internal function]: CodeIgniter\Events\Events::Config\{closure}()
#6 C:\laragon\www\dashboard-ftmd\system\Events\Events.php(188): call_user_func(Object(Closure))
#7 C:\laragon\www\dashboard-ftmd\system\CodeIgniter.php(293): CodeIgniter\Events\Events::trigger('pre_system')
#8 C:\laragon\www\dashboard-ftmd\public\index.php(45): CodeIgniter\CodeIgniter->run()
#9 {main}
CRITICAL - 2023-11-05 19:56:18 --> file_get_contents(C:\laragon\www\dashboard-ftmd\writable\debugbar/debugbar_1699235522.json): failed to open stream: No such file or directory
#0 [internal function]: CodeIgniter\Debug\Exceptions->errorHandler(2, 'file_get_conten...', 'C:\\laragon\\www\\...', 111, Array)
#1 C:\laragon\www\dashboard-ftmd\system\Debug\Toolbar\Collectors\History.php(111): file_get_contents('C:\\laragon\\www\\...')
#2 C:\laragon\www\dashboard-ftmd\system\Debug\Toolbar.php(483): CodeIgniter\Debug\Toolbar\Collectors\History->setFiles(1699235747, 20)
#3 C:\laragon\www\dashboard-ftmd\system\Debug\Toolbar.php(455): CodeIgniter\Debug\Toolbar->format(Array, 'html')
#4 C:\laragon\www\dashboard-ftmd\app\Config\Events.php(50): CodeIgniter\Debug\Toolbar->respond()
#5 [internal function]: CodeIgniter\Events\Events::Config\{closure}()
#6 C:\laragon\www\dashboard-ftmd\system\Events\Events.php(188): call_user_func(Object(Closure))
#7 C:\laragon\www\dashboard-ftmd\system\CodeIgniter.php(293): CodeIgniter\Events\Events::trigger('pre_system')
#8 C:\laragon\www\dashboard-ftmd\public\index.php(45): CodeIgniter\CodeIgniter->run()
#9 {main}
CRITICAL - 2023-11-05 19:56:18 --> unlink(C:\laragon\www\dashboard-ftmd\writable\debugbar/debugbar_1699235522.json): No such file or directory
#0 [internal function]: CodeIgniter\Debug\Exceptions->errorHandler(2, 'unlink(C:\\larag...', 'C:\\laragon\\www\\...', 106, Array)
#1 C:\laragon\www\dashboard-ftmd\system\Debug\Toolbar\Collectors\History.php(106): unlink('C:\\laragon\\www\\...')
#2 C:\laragon\www\dashboard-ftmd\system\Debug\Toolbar.php(483): CodeIgniter\Debug\Toolbar\Collectors\History->setFiles(1699235764, 20)
#3 C:\laragon\www\dashboard-ftmd\system\Debug\Toolbar.php(455): CodeIgniter\Debug\Toolbar->format(Array, 'html')
#4 C:\laragon\www\dashboard-ftmd\app\Config\Events.php(50): CodeIgniter\Debug\Toolbar->respond()
#5 [internal function]: CodeIgniter\Events\Events::Config\{closure}()
#6 C:\laragon\www\dashboard-ftmd\system\Events\Events.php(188): call_user_func(Object(Closure))
#7 C:\laragon\www\dashboard-ftmd\system\CodeIgniter.php(293): CodeIgniter\Events\Events::trigger('pre_system')
#8 C:\laragon\www\dashboard-ftmd\public\index.php(45): CodeIgniter\CodeIgniter->run()
#9 {main}
CRITICAL - 2023-11-05 19:56:18 --> file_get_contents(C:\laragon\www\dashboard-ftmd\writable\debugbar/debugbar_1699235608.json): failed to open stream: No such file or directory
#0 [internal function]: CodeIgniter\Debug\Exceptions->errorHandler(2, 'file_get_conten...', 'C:\\laragon\\www\\...', 111, Array)
#1 C:\laragon\www\dashboard-ftmd\system\Debug\Toolbar\Collectors\History.php(111): file_get_contents('C:\\laragon\\www\\...')
#2 C:\laragon\www\dashboard-ftmd\system\Debug\Toolbar.php(483): CodeIgniter\Debug\Toolbar\Collectors\History->setFiles(1699235696, 20)
#3 C:\laragon\www\dashboard-ftmd\system\Debug\Toolbar.php(455): CodeIgniter\Debug\Toolbar->format(Array, 'html')
#4 C:\laragon\www\dashboard-ftmd\app\Config\Events.php(50): CodeIgniter\Debug\Toolbar->respond()
#5 [internal function]: CodeIgniter\Events\Events::Config\{closure}()
#6 C:\laragon\www\dashboard-ftmd\system\Events\Events.php(188): call_user_func(Object(Closure))
#7 C:\laragon\www\dashboard-ftmd\system\CodeIgniter.php(293): CodeIgniter\Events\Events::trigger('pre_system')
#8 C:\laragon\www\dashboard-ftmd\public\index.php(45): CodeIgniter\CodeIgniter->run()
#9 {main}
CRITICAL - 2023-11-05 23:21:58 --> syntax error, unexpected 'dd' (T_STRING)
#0 C:\laragon\www\dashboard-ftmd\system\Autoloader\Autoloader.php(296): CodeIgniter\Autoloader\Autoloader->requireFile('C:\\laragon\\www\\...')
#1 C:\laragon\www\dashboard-ftmd\system\Autoloader\Autoloader.php(258): CodeIgniter\Autoloader\Autoloader->loadInNamespace('App\\Models\\Angg...')
#2 [internal function]: CodeIgniter\Autoloader\Autoloader->loadClass('App\\Models\\Angg...')
#3 C:\laragon\www\dashboard-ftmd\app\Controllers\Dashboard\Anggaran.php(20): spl_autoload_call('App\\Models\\Angg...')
#4 C:\laragon\www\dashboard-ftmd\system\CodeIgniter.php(890): App\Controllers\Dashboard\Anggaran->__construct()
#5 C:\laragon\www\dashboard-ftmd\system\CodeIgniter.php(399): CodeIgniter\CodeIgniter->createController()
#6 C:\laragon\www\dashboard-ftmd\system\CodeIgniter.php(312): CodeIgniter\CodeIgniter->handleRequest(NULL, Object(Config\Cache), false)
#7 C:\laragon\www\dashboard-ftmd\public\index.php(45): CodeIgniter\CodeIgniter->run()
#8 {main}
