CRITICAL - 2020-12-14 21:52:04 --> Too few arguments to function App\Controllers\Data\Kepegawaian::detail(), 0 passed in C:\xampp\htdocs\dashboard-ftmd\system\CodeIgniter.php on line 918 and exactly 1 expected
#0 C:\xampp\htdocs\dashboard-ftmd\system\CodeIgniter.php(918): App\Controllers\Data\Kepegawaian->detail()
#1 C:\xampp\htdocs\dashboard-ftmd\system\CodeIgniter.php(404): CodeIgniter\CodeIgniter->runController(Object(App\Controllers\Data\Kepegawaian))
#2 C:\xampp\htdocs\dashboard-ftmd\system\CodeIgniter.php(312): CodeIgniter\CodeIgniter->handleRequest(NULL, Object(Config\Cache), false)
#3 C:\xampp\htdocs\dashboard-ftmd\public\index.php(45): CodeIgniter\CodeIgniter->run()
#4 {main}
