CRITICAL - 2022-09-08 02:58:22 --> Division by zero
#0 /var/www/html/dashboard-ftmd/app/Controllers/Dashboard/Anggaran.php(112): CodeIgniter\Debug\Exceptions->errorHandler()
#1 /var/www/html/dashboard-ftmd/system/CodeIgniter.php(918): App\Controllers\Dashboard\Anggaran->api_penyerapan_persen()
#2 /var/www/html/dashboard-ftmd/system/CodeIgniter.php(404): CodeIgniter\CodeIgniter->runController()
#3 /var/www/html/dashboard-ftmd/system/CodeIgniter.php(312): CodeIgniter\CodeIgniter->handleRequest()
#4 /var/www/html/dashboard-ftmd/public/index.php(45): CodeIgniter\CodeIgniter->run()
#5 {main}
CRITICAL - 2022-09-08 03:07:32 --> Division by zero
#0 /var/www/html/dashboard-ftmd/app/Controllers/Dashboard/Anggaran.php(112): CodeIgniter\Debug\Exceptions->errorHandler()
#1 /var/www/html/dashboard-ftmd/system/CodeIgniter.php(918): App\Controllers\Dashboard\Anggaran->api_penyerapan_persen()
#2 /var/www/html/dashboard-ftmd/system/CodeIgniter.php(404): CodeIgniter\CodeIgniter->runController()
#3 /var/www/html/dashboard-ftmd/system/CodeIgniter.php(312): CodeIgniter\CodeIgniter->handleRequest()
#4 /var/www/html/dashboard-ftmd/public/index.php(45): CodeIgniter\CodeIgniter->run()
#5 {main}
CRITICAL - 2022-09-08 03:10:31 --> Division by zero
#0 /var/www/html/dashboard-ftmd/app/Controllers/Dashboard/Anggaran.php(112): CodeIgniter\Debug\Exceptions->errorHandler()
#1 /var/www/html/dashboard-ftmd/system/CodeIgniter.php(918): App\Controllers\Dashboard\Anggaran->api_penyerapan_persen()
#2 /var/www/html/dashboard-ftmd/system/CodeIgniter.php(404): CodeIgniter\CodeIgniter->runController()
#3 /var/www/html/dashboard-ftmd/system/CodeIgniter.php(312): CodeIgniter\CodeIgniter->handleRequest()
#4 /var/www/html/dashboard-ftmd/public/index.php(45): CodeIgniter\CodeIgniter->run()
#5 {main}
CRITICAL - 2022-09-08 03:24:11 --> Division by zero
#0 /var/www/html/dashboard-ftmd/app/Controllers/Dashboard/Anggaran.php(112): CodeIgniter\Debug\Exceptions->errorHandler()
#1 /var/www/html/dashboard-ftmd/system/CodeIgniter.php(918): App\Controllers\Dashboard\Anggaran->api_penyerapan_persen()
#2 /var/www/html/dashboard-ftmd/system/CodeIgniter.php(404): CodeIgniter\CodeIgniter->runController()
#3 /var/www/html/dashboard-ftmd/system/CodeIgniter.php(312): CodeIgniter\CodeIgniter->handleRequest()
#4 /var/www/html/dashboard-ftmd/public/index.php(45): CodeIgniter\CodeIgniter->run()
#5 {main}
CRITICAL - 2022-09-08 03:27:46 --> Division by zero
#0 /var/www/html/dashboard-ftmd/app/Controllers/Dashboard/Anggaran.php(112): CodeIgniter\Debug\Exceptions->errorHandler()
#1 /var/www/html/dashboard-ftmd/system/CodeIgniter.php(918): App\Controllers\Dashboard\Anggaran->api_penyerapan_persen()
#2 /var/www/html/dashboard-ftmd/system/CodeIgniter.php(404): CodeIgniter\CodeIgniter->runController()
#3 /var/www/html/dashboard-ftmd/system/CodeIgniter.php(312): CodeIgniter\CodeIgniter->handleRequest()
#4 /var/www/html/dashboard-ftmd/public/index.php(45): CodeIgniter\CodeIgniter->run()
#5 {main}
CRITICAL - 2022-09-08 03:32:09 --> Division by zero
#0 /var/www/html/dashboard-ftmd/app/Controllers/Dashboard/Anggaran.php(112): CodeIgniter\Debug\Exceptions->errorHandler()
#1 /var/www/html/dashboard-ftmd/system/CodeIgniter.php(918): App\Controllers\Dashboard\Anggaran->api_penyerapan_persen()
#2 /var/www/html/dashboard-ftmd/system/CodeIgniter.php(404): CodeIgniter\CodeIgniter->runController()
#3 /var/www/html/dashboard-ftmd/system/CodeIgniter.php(312): CodeIgniter\CodeIgniter->handleRequest()
#4 /var/www/html/dashboard-ftmd/public/index.php(45): CodeIgniter\CodeIgniter->run()
#5 {main}
CRITICAL - 2022-09-08 03:36:48 --> Division by zero
#0 /var/www/html/dashboard-ftmd/app/Controllers/Dashboard/Anggaran.php(112): CodeIgniter\Debug\Exceptions->errorHandler()
#1 /var/www/html/dashboard-ftmd/system/CodeIgniter.php(918): App\Controllers\Dashboard\Anggaran->api_penyerapan_persen()
#2 /var/www/html/dashboard-ftmd/system/CodeIgniter.php(404): CodeIgniter\CodeIgniter->runController()
#3 /var/www/html/dashboard-ftmd/system/CodeIgniter.php(312): CodeIgniter\CodeIgniter->handleRequest()
#4 /var/www/html/dashboard-ftmd/public/index.php(45): CodeIgniter\CodeIgniter->run()
#5 {main}
